# Exported from ProBuilder
# http://www.procore3d.com/probuilder
# 20/07/2018 17:47:41

mtllib ./Plane.mtl
o Plane

g Plane
v 0.05 -0.05 0
v 0.05 0.05 0
v -0.05 -0.05 0
v -0.05 0.05 0

vn 0 0 -1
vn 0 0 -1
vn 0 0 -1
vn 0 0 -1

vt 0 0
vt 0 1
vt 1 0
vt 1 1

g Plane
usemtl Default_Prototype
f 3/3/3 4/4/4 2/2/2 1/1/1

